<?xml version="1.0" encoding="UTF-8" standalone="no"?>
<!DOCTYPE svg PUBLIC "-//W3C//DTD SVG 1.1//EN"
 "http://www.w3.org/Graphics/SVG/1.1/DTD/svg11.dtd">
<!-- Generated by graphviz version 2.43.0 (0)
 -->
<!-- Title: ram Pages: 1 -->
<svg width="2106pt" height="1914pt"
 viewBox="0.00 0.00 2106.00 1914.00" xmlns="http://www.w3.org/2000/svg" xmlns:xlink="http://www.w3.org/1999/xlink">
<g id="graph0" class="graph" transform="scale(1 1) rotate(0) translate(4 1910)">
<title>ram</title>
<polygon fill="#999b9c" stroke="transparent" points="-4,4 -4,-1910 2102,-1910 2102,4 -4,4"/>
<g id="clust1" class="cluster">
<title>cluster_scheduled</title>
<polygon fill="#cbcccd" stroke="black" points="105,-1391 105,-1898 482,-1898 482,-1391 105,-1391"/>
<text text-anchor="middle" x="293.5" y="-1882.8" font-family="Times,serif" font-size="14.00">SCHEDULED</text>
</g>
<g id="clust2" class="cluster">
<title>cluster_assets</title>
<polygon fill="#cbcccd" stroke="black" points="362,-1230 362,-1383 1102,-1383 1102,-1230 362,-1230"/>
<text text-anchor="middle" x="732" y="-1367.8" font-family="Times,serif" font-size="14.00">ASSETS</text>
</g>
<g id="clust3" class="cluster">
<title>cluster_cai</title>
<polygon fill="#cbcccd" stroke="black" points="370,-1238 370,-1352 1002,-1352 1002,-1238 370,-1238"/>
<text text-anchor="middle" x="686" y="-1336.8" font-family="Times,serif" font-size="14.00">GCP Cloud Asset Inventory</text>
</g>
<g id="clust4" class="cluster">
<title>cluster_export</title>
<polygon fill="#cbcccd" stroke="black" points="378,-1246 378,-1321 490,-1321 490,-1246 378,-1246"/>
<text text-anchor="middle" x="434" y="-1305.8" font-family="Times,serif" font-size="14.00">export</text>
</g>
<g id="clust5" class="cluster">
<title>cluster_realtime</title>
<polygon fill="#cbcccd" stroke="black" points="498,-1246 498,-1321 994,-1321 994,-1246 498,-1246"/>
<text text-anchor="middle" x="746" y="-1305.8" font-family="Times,serif" font-size="14.00">real&#45;time</text>
</g>
<g id="clust6" class="cluster">
<title>cluster_splitexport</title>
<polygon fill="#cbcccd" stroke="black" points="8,-928 8,-1298 354,-1298 354,-928 8,-928"/>
</g>
<g id="clust7" class="cluster">
<title>cluster_publish2fs</title>
<polygon fill="#cbcccd" stroke="black" points="348,-712 348,-908 524,-908 524,-712 348,-712"/>
</g>
<g id="clust8" class="cluster">
<title>cluster_upload2gcs</title>
<polygon fill="#cbcccd" stroke="black" points="532,-712 532,-908 670,-908 670,-712 532,-712"/>
</g>
<g id="clust9" class="cluster">
<title>cluster_core</title>
<polygon fill="#999b9c" stroke="black" points="678,-56 678,-1222 1285,-1222 1285,-56 678,-56"/>
<text text-anchor="middle" x="981.5" y="-1206.8" font-family="Times,serif" font-size="14.00"> &#160;&#160;&#160;&#160;&#160;&#160;&#160;&#160;&#160;&#160;&#160;&#160;&#160;&#160;&#160;&#160;&#160;&#160;&#160;&#160;&#160;&#160;&#160;&#160;&#160;core microvervices</text>
</g>
<g id="clust10" class="cluster">
<title>cluster_convertfeed</title>
<polygon fill="#cbcccd" stroke="black" points="686,-928 686,-1124 836,-1124 836,-928 686,-928"/>
</g>
<g id="clust11" class="cluster">
<title>cluster_fetchrules</title>
<polygon fill="#cbcccd" stroke="black" points="778,-712 778,-908 1036,-908 1036,-712 778,-712"/>
</g>
<g id="clust12" class="cluster">
<title>cluster_monitor</title>
<polygon fill="#cbcccd" stroke="black" points="887,-496 887,-692 1239,-692 1239,-496 887,-496"/>
</g>
<g id="clust13" class="cluster">
<title>cluster_stream2bq</title>
<polygon fill="#cbcccd" stroke="black" points="686,-64 686,-476 1277,-476 1277,-64 686,-64"/>
</g>
<g id="clust14" class="cluster">
<title>cluster_autofix</title>
<polygon fill="#cbcccd" stroke="black" points="1293,-352 1293,-476 1471,-476 1471,-352 1293,-352"/>
</g>
<g id="clust15" class="cluster">
<title>cluster_console</title>
<polygon fill="#cbcccd" stroke="black" points="1509,-352 1509,-476 1635,-476 1635,-352 1509,-352"/>
</g>
<g id="clust16" class="cluster">
<title>cluster_load_balancer</title>
<polygon fill="#cbcccd" stroke="black" points="1511,-496 1511,-1147 2090,-1147 2090,-496 1511,-496"/>
<text text-anchor="middle" x="1800.5" y="-1131.8" font-family="Times,serif" font-size="14.00">global external HTTPS classic load balancer</text>
</g>
<g id="clust17" class="cluster">
<title>cluster_legend</title>
<polygon fill="#cbcccd" stroke="black" points="1202,-1679 1202,-1898 1467,-1898 1467,-1679 1202,-1679"/>
<text text-anchor="middle" x="1334.5" y="-1882.8" font-family="Times,serif" font-size="14.00">legend</text>
</g>
<!-- launch_cRun -->
<g id="node1" class="node">
<title>launch_cRun</title>
<polygon fill="#fbbc04" stroke="black" points="312,-1651 228,-1651 224,-1647 224,-1615 308,-1615 312,-1619 312,-1651"/>
<polyline fill="none" stroke="black" points="308,-1647 224,-1647 "/>
<polyline fill="none" stroke="black" points="308,-1647 308,-1615 "/>
<polyline fill="none" stroke="black" points="308,-1647 312,-1651 "/>
<text text-anchor="middle" x="268" y="-1629.3" font-family="Times,serif" font-size="14.00">launch_cRun</text>
</g>
<!-- action_topic -->
<g id="node6" class="node">
<title>action_topic</title>
<ellipse fill="#5bb974" stroke="black" cx="268" cy="-1561" rx="53.89" ry="18"/>
<text text-anchor="middle" x="268" y="-1557.3" font-family="Times,serif" font-size="14.00">action_topic</text>
</g>
<!-- launch_cRun&#45;&gt;action_topic -->
<g id="edge6" class="edge">
<title>launch_cRun&#45;&gt;action_topic</title>
<path fill="none" stroke="black" d="M268,-1614.7C268,-1606.98 268,-1597.71 268,-1589.11"/>
<polygon fill="black" stroke="black" points="271.5,-1589.1 268,-1579.1 264.5,-1589.1 271.5,-1589.1"/>
</g>
<!-- executecaiexport_cRun -->
<g id="node2" class="node">
<title>executecaiexport_cRun</title>
<polygon fill="#fbbc04" stroke="black" points="471.5,-1435 332.5,-1435 328.5,-1431 328.5,-1399 467.5,-1399 471.5,-1403 471.5,-1435"/>
<polyline fill="none" stroke="black" points="467.5,-1431 328.5,-1431 "/>
<polyline fill="none" stroke="black" points="467.5,-1431 467.5,-1399 "/>
<polyline fill="none" stroke="black" points="467.5,-1431 471.5,-1435 "/>
<text text-anchor="middle" x="400" y="-1413.3" font-family="Times,serif" font-size="14.00">executecaiexport_cRun</text>
</g>
<!-- cai_export_api -->
<g id="node12" class="node">
<title>cai_export_api</title>
<text text-anchor="middle" x="434" y="-1268.3" font-family="Times,serif" font-size="14.00">cai_export_api</text>
</g>
<!-- executecaiexport_cRun&#45;&gt;cai_export_api -->
<g id="edge11" class="edge">
<title>executecaiexport_cRun&#45;&gt;cai_export_api</title>
<path fill="none" stroke="black" d="M404.1,-1398.75C409.92,-1374.27 420.63,-1329.21 427.53,-1300.2"/>
<polygon fill="black" stroke="black" points="430.98,-1300.85 429.88,-1290.31 424.17,-1299.23 430.98,-1300.85"/>
</g>
<!-- executegfsdeleteolddocs_cRun -->
<g id="node3" class="node">
<title>executegfsdeleteolddocs_cRun</title>
<polygon fill="#fbbc04" stroke="black" points="299,-1435 119,-1435 115,-1431 115,-1399 295,-1399 299,-1403 299,-1435"/>
<polyline fill="none" stroke="black" points="295,-1431 115,-1431 "/>
<polyline fill="none" stroke="black" points="295,-1431 295,-1399 "/>
<polyline fill="none" stroke="black" points="295,-1431 299,-1435 "/>
<text text-anchor="middle" x="207" y="-1413.3" font-family="Times,serif" font-size="14.00">executegfsdeleteolddocs_cRun</text>
</g>
<!-- exports_firestore_collection -->
<g id="node13" class="node">
<title>exports_firestore_collection</title>
<polygon fill="none" stroke="black" points="184,-1191 181,-1195 160,-1195 157,-1191 16,-1191 16,-1155 184,-1155 184,-1191"/>
<text text-anchor="middle" x="100" y="-1169.3" font-family="Times,serif" font-size="14.00">exports_firestore_collection</text>
</g>
<!-- executegfsdeleteolddocs_cRun&#45;&gt;exports_firestore_collection -->
<g id="edge12" class="edge">
<title>executegfsdeleteolddocs_cRun&#45;&gt;exports_firestore_collection</title>
<path fill="none" stroke="black" d="M187.54,-1398.69C182.99,-1393.94 178.46,-1388.55 175,-1383 137.77,-1323.26 115.49,-1242.4 105.78,-1200.95"/>
<polygon fill="black" stroke="black" points="109.16,-1200.04 103.53,-1191.07 102.33,-1201.59 109.16,-1200.04"/>
</g>
<!-- actions_gcs_bucket -->
<g id="node4" class="node">
<title>actions_gcs_bucket</title>
<polygon fill="#ee675c" stroke="black" points="389,-1723 386,-1727 365,-1727 362,-1723 267,-1723 267,-1687 389,-1687 389,-1723"/>
<text text-anchor="middle" x="328" y="-1701.3" font-family="Times,serif" font-size="14.00">actions_gcs_bucket</text>
</g>
<!-- actions_gcs_bucket&#45;&gt;launch_cRun -->
<g id="edge5" class="edge">
<title>actions_gcs_bucket&#45;&gt;launch_cRun</title>
<path fill="none" stroke="black" d="M313.17,-1686.7C305.98,-1678.3 297.2,-1668.07 289.31,-1658.86"/>
<polygon fill="black" stroke="black" points="291.83,-1656.42 282.66,-1651.1 286.51,-1660.97 291.83,-1656.42"/>
</g>
<!-- actionTrigger_topic -->
<g id="node5" class="node">
<title>actionTrigger_topic</title>
<ellipse fill="#5bb974" stroke="black" cx="201" cy="-1777" rx="80.69" ry="18"/>
<text text-anchor="middle" x="201" y="-1773.3" font-family="Times,serif" font-size="14.00">actionTrigger_topic</text>
</g>
<!-- launch_trigger -->
<g id="node7" class="node">
<title>launch_trigger</title>
<polygon fill="#aecbfa" stroke="black" points="248.5,-1723 153.5,-1723 153.5,-1687 248.5,-1687 248.5,-1723"/>
<text text-anchor="middle" x="201" y="-1701.3" font-family="Times,serif" font-size="14.00">launch_trigger</text>
</g>
<!-- actionTrigger_topic&#45;&gt;launch_trigger -->
<g id="edge3" class="edge">
<title>actionTrigger_topic&#45;&gt;launch_trigger</title>
<path fill="none" stroke="black" d="M201,-1758.7C201,-1750.98 201,-1741.71 201,-1733.11"/>
<polygon fill="black" stroke="black" points="204.5,-1733.1 201,-1723.1 197.5,-1733.1 204.5,-1733.1"/>
</g>
<!-- executecaiexport_trigger -->
<g id="node8" class="node">
<title>executecaiexport_trigger</title>
<polygon fill="#174ea6" stroke="black" points="473.5,-1507 322.5,-1507 322.5,-1471 473.5,-1471 473.5,-1507"/>
<text text-anchor="middle" x="398" y="-1485.3" font-family="Times,serif" font-size="14.00" fill="white">executecaiexport_trigger</text>
</g>
<!-- action_topic&#45;&gt;executecaiexport_trigger -->
<g id="edge7" class="edge">
<title>action_topic&#45;&gt;executecaiexport_trigger</title>
<path fill="none" stroke="black" d="M295.25,-1545.33C313.2,-1535.66 337.03,-1522.83 357.22,-1511.96"/>
<polygon fill="black" stroke="black" points="359.06,-1514.94 366.2,-1507.12 355.74,-1508.78 359.06,-1514.94"/>
</g>
<!-- executegfsdeleteolddocs_trigger -->
<g id="node9" class="node">
<title>executegfsdeleteolddocs_trigger</title>
<polygon fill="#174ea6" stroke="black" points="304.5,-1507 113.5,-1507 113.5,-1471 304.5,-1471 304.5,-1507"/>
<text text-anchor="middle" x="209" y="-1485.3" font-family="Times,serif" font-size="14.00" fill="white">executegfsdeleteolddocs_trigger</text>
</g>
<!-- action_topic&#45;&gt;executegfsdeleteolddocs_trigger -->
<g id="edge9" class="edge">
<title>action_topic&#45;&gt;executegfsdeleteolddocs_trigger</title>
<path fill="none" stroke="black" d="M254.02,-1543.41C246.95,-1535.03 238.23,-1524.68 230.35,-1515.33"/>
<polygon fill="black" stroke="black" points="232.83,-1512.84 223.71,-1507.45 227.47,-1517.35 232.83,-1512.84"/>
</g>
<!-- launch_trigger&#45;&gt;launch_cRun -->
<g id="edge4" class="edge">
<title>launch_trigger&#45;&gt;launch_cRun</title>
<path fill="none" stroke="black" d="M217.56,-1686.7C225.68,-1678.22 235.59,-1667.86 244.47,-1658.58"/>
<polygon fill="black" stroke="black" points="247.24,-1660.75 251.63,-1651.1 242.19,-1655.91 247.24,-1660.75"/>
</g>
<!-- executecaiexport_trigger&#45;&gt;executecaiexport_cRun -->
<g id="edge8" class="edge">
<title>executecaiexport_trigger&#45;&gt;executecaiexport_cRun</title>
<path fill="none" stroke="black" d="M398.49,-1470.7C398.71,-1462.98 398.98,-1453.71 399.23,-1445.11"/>
<polygon fill="black" stroke="black" points="402.72,-1445.2 399.51,-1435.1 395.73,-1445 402.72,-1445.2"/>
</g>
<!-- executegfsdeleteolddocs_trigger&#45;&gt;executegfsdeleteolddocs_cRun -->
<g id="edge10" class="edge">
<title>executegfsdeleteolddocs_trigger&#45;&gt;executegfsdeleteolddocs_cRun</title>
<path fill="none" stroke="black" d="M208.51,-1470.7C208.29,-1462.98 208.02,-1453.71 207.77,-1445.11"/>
<polygon fill="black" stroke="black" points="211.27,-1445 207.49,-1435.1 204.28,-1445.2 211.27,-1445"/>
</g>
<!-- cloudSchedulerxx -->
<g id="node10" class="node">
<title>cloudSchedulerxx</title>
<text text-anchor="middle" x="314" y="-1845.3" font-family="Times,serif" font-size="14.00">cloudSchedulerxx</text>
</g>
<!-- cloudSchedulerxx&#45;&gt;actionTrigger_topic -->
<g id="edge1" class="edge">
<title>cloudSchedulerxx&#45;&gt;actionTrigger_topic</title>
<path fill="none" stroke="black" d="M286.36,-1830.88C271.14,-1821.45 252.11,-1809.66 235.88,-1799.61"/>
<polygon fill="black" stroke="black" points="237.54,-1796.52 227.19,-1794.23 233.85,-1802.47 237.54,-1796.52"/>
</g>
<!-- cloudScheduler01 -->
<g id="node11" class="node">
<title>cloudScheduler01</title>
<text text-anchor="middle" x="182" y="-1845.3" font-family="Times,serif" font-size="14.00">cloudScheduler01</text>
</g>
<!-- cloudScheduler01&#45;&gt;actionTrigger_topic -->
<g id="edge2" class="edge">
<title>cloudScheduler01&#45;&gt;actionTrigger_topic</title>
<path fill="none" stroke="black" d="M186.7,-1830.7C188.81,-1822.9 191.36,-1813.51 193.72,-1804.83"/>
<polygon fill="black" stroke="black" points="197.12,-1805.67 196.36,-1795.1 190.36,-1803.84 197.12,-1805.67"/>
</g>
<!-- exports_gcs_bucket -->
<g id="node20" class="node">
<title>exports_gcs_bucket</title>
<polygon fill="none" stroke="black" points="346,-1191 343,-1195 322,-1195 319,-1191 222,-1191 222,-1155 346,-1155 346,-1191"/>
<text text-anchor="middle" x="284" y="-1169.3" font-family="Times,serif" font-size="14.00">exports_gcs_bucket</text>
</g>
<!-- cai_export_api&#45;&gt;exports_gcs_bucket -->
<g id="edge18" class="edge">
<title>cai_export_api&#45;&gt;exports_gcs_bucket</title>
<path fill="none" stroke="black" d="M407.53,-1253.88C382.86,-1237.93 345.93,-1214.05 318.87,-1196.55"/>
<polygon fill="black" stroke="black" points="320.76,-1193.6 310.46,-1191.11 316.96,-1199.48 320.76,-1193.6"/>
</g>
<!-- caiFeed_org_A -->
<g id="node14" class="node">
<title>caiFeed_org_A</title>
<text text-anchor="middle" x="678" y="-1268.3" font-family="Times,serif" font-size="14.00">caiFeed_org_A</text>
</g>
<!-- caiFeed_topic -->
<g id="node19" class="node">
<title>caiFeed_topic</title>
<ellipse fill="#5bb974" stroke="black" cx="758" cy="-1173" rx="59.59" ry="18"/>
<text text-anchor="middle" x="758" y="-1169.3" font-family="Times,serif" font-size="14.00">caiFeed_topic</text>
</g>
<!-- caiFeed_org_A&#45;&gt;caiFeed_topic -->
<g id="edge14" class="edge">
<title>caiFeed_org_A&#45;&gt;caiFeed_topic</title>
<path fill="none" stroke="black" d="M692.3,-1253.66C704.97,-1238.3 723.6,-1215.71 737.79,-1198.5"/>
<polygon fill="black" stroke="black" points="740.69,-1200.49 744.36,-1190.54 735.29,-1196.03 740.69,-1200.49"/>
</g>
<!-- caiFeed_org_xx -->
<g id="node15" class="node">
<title>caiFeed_org_xx</title>
<text text-anchor="middle" x="558" y="-1268.3" font-family="Times,serif" font-size="14.00">caiFeed_org_xx</text>
</g>
<!-- caiFeed_org_xx&#45;&gt;caiFeed_topic -->
<g id="edge15" class="edge">
<title>caiFeed_org_xx&#45;&gt;caiFeed_topic</title>
<path fill="none" stroke="black" d="M581.04,-1253.85C592.17,-1246 605.92,-1236.93 619,-1230 648.28,-1214.48 682.83,-1200.54 710.16,-1190.46"/>
<polygon fill="black" stroke="black" points="711.68,-1193.63 719.88,-1186.92 709.28,-1187.05 711.68,-1193.63"/>
</g>
<!-- caiFeed_folder_1 -->
<g id="node16" class="node">
<title>caiFeed_folder_1</title>
<text text-anchor="middle" x="931" y="-1268.3" font-family="Times,serif" font-size="14.00">caiFeed_folder_1</text>
</g>
<!-- caiFeed_folder_1&#45;&gt;caiFeed_topic -->
<g id="edge16" class="edge">
<title>caiFeed_folder_1&#45;&gt;caiFeed_topic</title>
<path fill="none" stroke="black" d="M905.5,-1253.87C893.91,-1246.3 879.92,-1237.44 867,-1230 844.45,-1217.03 818.58,-1203.67 797.7,-1193.26"/>
<polygon fill="black" stroke="black" points="799,-1190 788.49,-1188.69 795.89,-1196.27 799,-1190"/>
</g>
<!-- caiFeed_folder_n -->
<g id="node17" class="node">
<title>caiFeed_folder_n</title>
<text text-anchor="middle" x="802" y="-1268.3" font-family="Times,serif" font-size="14.00">caiFeed_folder_n</text>
</g>
<!-- caiFeed_folder_n&#45;&gt;caiFeed_topic -->
<g id="edge17" class="edge">
<title>caiFeed_folder_n&#45;&gt;caiFeed_topic</title>
<path fill="none" stroke="black" d="M794.13,-1253.66C787.4,-1238.81 777.6,-1217.2 769.9,-1200.23"/>
<polygon fill="black" stroke="black" points="772.97,-1198.53 765.65,-1190.87 766.59,-1201.42 772.97,-1198.53"/>
</g>
<!-- other_assets -->
<g id="node18" class="node">
<title>other_assets</title>
<polygon fill="#a50e0e" stroke="transparent" points="1093.5,-1290 1010.5,-1290 1010.5,-1254 1093.5,-1254 1093.5,-1290"/>
<text text-anchor="middle" x="1052" y="-1268.3" font-family="Times,serif" font-size="14.00" fill="white">other_assets</text>
</g>
<!-- other_assets&#45;&gt;caiFeed_topic -->
<g id="edge13" class="edge">
<title>other_assets&#45;&gt;caiFeed_topic</title>
<path fill="none" stroke="black" d="M1033.3,-1253.67C1023.45,-1245.39 1010.78,-1236.01 998,-1230 942.03,-1203.7 872.75,-1189.24 823.04,-1181.64"/>
<polygon fill="black" stroke="black" points="823.46,-1178.17 813.05,-1180.17 822.43,-1185.09 823.46,-1178.17"/>
</g>
<!-- convertfeed_trigger -->
<g id="node31" class="node">
<title>convertfeed_trigger</title>
<polygon fill="#aecbfa" stroke="black" points="819.5,-1116 696.5,-1116 696.5,-1080 819.5,-1080 819.5,-1116"/>
<text text-anchor="middle" x="758" y="-1094.3" font-family="Times,serif" font-size="14.00">convertfeed_trigger</text>
</g>
<!-- caiFeed_topic&#45;&gt;convertfeed_trigger -->
<g id="edge30" class="edge">
<title>caiFeed_topic&#45;&gt;convertfeed_trigger</title>
<path fill="none" stroke="black" d="M758,-1154.7C758,-1146.25 758,-1135.87 758,-1126.37"/>
<polygon fill="black" stroke="black" points="761.5,-1126.18 758,-1116.18 754.5,-1126.18 761.5,-1126.18"/>
</g>
<!-- exports_gcs_notification -->
<g id="node24" class="node">
<title>exports_gcs_notification</title>
<text text-anchor="middle" x="271" y="-1094.3" font-family="Times,serif" font-size="14.00">exports_gcs_notification</text>
</g>
<!-- exports_gcs_bucket&#45;&gt;exports_gcs_notification -->
<g id="edge19" class="edge">
<title>exports_gcs_bucket&#45;&gt;exports_gcs_notification</title>
<path fill="none" stroke="black" d="M280.92,-1154.7C279.4,-1146.15 277.53,-1135.65 275.82,-1126.07"/>
<polygon fill="black" stroke="black" points="279.26,-1125.41 274.06,-1116.18 272.37,-1126.63 279.26,-1125.41"/>
</g>
<!-- splitexport_cRun -->
<g id="node21" class="node">
<title>splitexport_cRun</title>
<polygon fill="#fbbc04" stroke="black" points="294,-1290 188,-1290 184,-1286 184,-1254 290,-1254 294,-1258 294,-1290"/>
<polyline fill="none" stroke="black" points="290,-1286 184,-1286 "/>
<polyline fill="none" stroke="black" points="290,-1286 290,-1254 "/>
<polyline fill="none" stroke="black" points="290,-1286 294,-1290 "/>
<text text-anchor="middle" x="239" y="-1268.3" font-family="Times,serif" font-size="14.00">splitexport_cRun</text>
</g>
<!-- splitexport_cRun&#45;&gt;exports_firestore_collection -->
<g id="edge23" class="edge">
<title>splitexport_cRun&#45;&gt;exports_firestore_collection</title>
<path fill="none" stroke="black" d="M214.47,-1253.88C191.88,-1238.12 158.19,-1214.6 133.2,-1197.17"/>
<polygon fill="black" stroke="black" points="134.96,-1194.13 124.75,-1191.27 130.95,-1199.87 134.96,-1194.13"/>
</g>
<!-- splitexport_cRun&#45;&gt;caiFeed_topic -->
<g id="edge24" class="edge">
<title>splitexport_cRun&#45;&gt;caiFeed_topic</title>
<path fill="none" stroke="black" d="M288.85,-1253.91C314.12,-1245.74 345.43,-1236.38 374,-1230 484.43,-1205.32 615.25,-1188.92 692.17,-1180.56"/>
<polygon fill="black" stroke="black" points="692.63,-1184.03 702.2,-1179.48 691.88,-1177.07 692.63,-1184.03"/>
</g>
<!-- splitexport_cRun&#45;&gt;exports_gcs_bucket -->
<g id="edge25" class="edge">
<title>splitexport_cRun&#45;&gt;exports_gcs_bucket</title>
<path fill="none" stroke="black" d="M247.05,-1253.66C253.89,-1238.9 263.84,-1217.46 271.68,-1200.55"/>
<polygon fill="black" stroke="black" points="274.99,-1201.74 276.02,-1191.19 268.64,-1198.79 274.99,-1201.74"/>
</g>
<!-- export_topic -->
<g id="node22" class="node">
<title>export_topic</title>
<ellipse fill="#5bb974" stroke="black" cx="261" cy="-1026" rx="55.49" ry="18"/>
<text text-anchor="middle" x="261" y="-1022.3" font-family="Times,serif" font-size="14.00">export_topic</text>
</g>
<!-- splitexport_trigger -->
<g id="node23" class="node">
<title>splitexport_trigger</title>
<polygon fill="#174ea6" stroke="black" points="272.5,-972 155.5,-972 155.5,-936 272.5,-936 272.5,-972"/>
<text text-anchor="middle" x="214" y="-950.3" font-family="Times,serif" font-size="14.00" fill="white">splitexport_trigger</text>
</g>
<!-- export_topic&#45;&gt;splitexport_trigger -->
<g id="edge21" class="edge">
<title>export_topic&#45;&gt;splitexport_trigger</title>
<path fill="none" stroke="black" d="M249.62,-1008.05C244.11,-999.84 237.36,-989.79 231.23,-980.66"/>
<polygon fill="black" stroke="black" points="234.08,-978.63 225.6,-972.28 228.27,-982.53 234.08,-978.63"/>
</g>
<!-- splitexport_trigger&#45;&gt;splitexport_cRun -->
<g id="edge22" class="edge">
<title>splitexport_trigger&#45;&gt;splitexport_cRun</title>
<path fill="none" stroke="black" d="M206.49,-972.16C192.64,-1006.33 166.3,-1084.89 187,-1147 188.41,-1151.22 191,-1151.03 193,-1155 206.99,-1182.75 201.22,-1193.25 213,-1222 216.06,-1229.47 219.91,-1237.31 223.7,-1244.47"/>
<polygon fill="black" stroke="black" points="220.88,-1246.62 228.75,-1253.71 227.03,-1243.26 220.88,-1246.62"/>
</g>
<!-- exports_gcs_notification&#45;&gt;export_topic -->
<g id="edge20" class="edge">
<title>exports_gcs_notification&#45;&gt;export_topic</title>
<path fill="none" stroke="black" d="M268.53,-1079.7C267.43,-1071.98 266.1,-1062.71 264.87,-1054.11"/>
<polygon fill="black" stroke="black" points="268.32,-1053.51 263.44,-1044.1 261.39,-1054.5 268.32,-1053.51"/>
</g>
<!-- publish2fs_cRun -->
<g id="node25" class="node">
<title>publish2fs_cRun</title>
<polygon fill="#fbbc04" stroke="black" points="510,-828 406,-828 402,-824 402,-792 506,-792 510,-796 510,-828"/>
<polyline fill="none" stroke="black" points="506,-824 402,-824 "/>
<polyline fill="none" stroke="black" points="506,-824 506,-792 "/>
<polyline fill="none" stroke="black" points="506,-824 510,-828 "/>
<text text-anchor="middle" x="456" y="-806.3" font-family="Times,serif" font-size="14.00">publish2fs_cRun</text>
</g>
<!-- assets_firestore_collection -->
<g id="node27" class="node">
<title>assets_firestore_collection</title>
<polygon fill="none" stroke="black" points="516,-756 513,-760 492,-760 489,-756 356,-756 356,-720 516,-720 516,-756"/>
<text text-anchor="middle" x="436" y="-734.3" font-family="Times,serif" font-size="14.00">assets_firestore_collection</text>
</g>
<!-- publish2fs_cRun&#45;&gt;assets_firestore_collection -->
<g id="edge27" class="edge">
<title>publish2fs_cRun&#45;&gt;assets_firestore_collection</title>
<path fill="none" stroke="black" d="M451.06,-791.7C448.83,-783.9 446.15,-774.51 443.67,-765.83"/>
<polygon fill="black" stroke="black" points="447,-764.76 440.89,-756.1 440.27,-766.68 447,-764.76"/>
</g>
<!-- publish2fs_trigger -->
<g id="node26" class="node">
<title>publish2fs_trigger</title>
<polygon fill="#174ea6" stroke="black" points="516,-900 400,-900 400,-864 516,-864 516,-900"/>
<text text-anchor="middle" x="458" y="-878.3" font-family="Times,serif" font-size="14.00" fill="white">publish2fs_trigger</text>
</g>
<!-- publish2fs_trigger&#45;&gt;publish2fs_cRun -->
<g id="edge26" class="edge">
<title>publish2fs_trigger&#45;&gt;publish2fs_cRun</title>
<path fill="none" stroke="black" d="M457.51,-863.7C457.29,-855.98 457.02,-846.71 456.77,-838.11"/>
<polygon fill="black" stroke="black" points="460.27,-838 456.49,-828.1 453.28,-838.2 460.27,-838"/>
</g>
<!-- upload2gcs_cRun -->
<g id="node28" class="node">
<title>upload2gcs_cRun</title>
<polygon fill="#fbbc04" stroke="black" points="657.5,-828 548.5,-828 544.5,-824 544.5,-792 653.5,-792 657.5,-796 657.5,-828"/>
<polyline fill="none" stroke="black" points="653.5,-824 544.5,-824 "/>
<polyline fill="none" stroke="black" points="653.5,-824 653.5,-792 "/>
<polyline fill="none" stroke="black" points="653.5,-824 657.5,-828 "/>
<text text-anchor="middle" x="601" y="-806.3" font-family="Times,serif" font-size="14.00">upload2gcs_cRun</text>
</g>
<!-- assets_gcs_bucket -->
<g id="node30" class="node">
<title>assets_gcs_bucket</title>
<polygon fill="#ee675c" stroke="black" points="659,-756 656,-760 635,-760 632,-756 543,-756 543,-720 659,-720 659,-756"/>
<text text-anchor="middle" x="601" y="-734.3" font-family="Times,serif" font-size="14.00">assets_gcs_bucket</text>
</g>
<!-- upload2gcs_cRun&#45;&gt;assets_gcs_bucket -->
<g id="edge29" class="edge">
<title>upload2gcs_cRun&#45;&gt;assets_gcs_bucket</title>
<path fill="none" stroke="black" d="M601,-791.7C601,-783.98 601,-774.71 601,-766.11"/>
<polygon fill="black" stroke="black" points="604.5,-766.1 601,-756.1 597.5,-766.1 604.5,-766.1"/>
</g>
<!-- upload2gcs_trigger -->
<g id="node29" class="node">
<title>upload2gcs_trigger</title>
<polygon fill="#174ea6" stroke="black" points="661.5,-900 540.5,-900 540.5,-864 661.5,-864 661.5,-900"/>
<text text-anchor="middle" x="601" y="-878.3" font-family="Times,serif" font-size="14.00" fill="white">upload2gcs_trigger</text>
</g>
<!-- upload2gcs_trigger&#45;&gt;upload2gcs_cRun -->
<g id="edge28" class="edge">
<title>upload2gcs_trigger&#45;&gt;upload2gcs_cRun</title>
<path fill="none" stroke="black" d="M601,-863.7C601,-855.98 601,-846.71 601,-838.11"/>
<polygon fill="black" stroke="black" points="604.5,-838.1 601,-828.1 597.5,-838.1 604.5,-838.1"/>
</g>
<!-- convertfeed_cRun -->
<g id="node32" class="node">
<title>convertfeed_cRun</title>
<polygon fill="#fbbc04" stroke="black" points="816,-1044 704,-1044 700,-1040 700,-1008 812,-1008 816,-1012 816,-1044"/>
<polyline fill="none" stroke="black" points="812,-1040 700,-1040 "/>
<polyline fill="none" stroke="black" points="812,-1040 812,-1008 "/>
<polyline fill="none" stroke="black" points="812,-1040 816,-1044 "/>
<text text-anchor="middle" x="758" y="-1022.3" font-family="Times,serif" font-size="14.00">convertfeed_cRun</text>
</g>
<!-- convertfeed_trigger&#45;&gt;convertfeed_cRun -->
<g id="edge31" class="edge">
<title>convertfeed_trigger&#45;&gt;convertfeed_cRun</title>
<path fill="none" stroke="black" d="M758,-1079.7C758,-1071.98 758,-1062.71 758,-1054.11"/>
<polygon fill="black" stroke="black" points="761.5,-1054.1 758,-1044.1 754.5,-1054.1 761.5,-1054.1"/>
</g>
<!-- convertfeed_cRun&#45;&gt;assets_firestore_collection -->
<g id="edge33" class="edge">
<title>convertfeed_cRun&#45;&gt;assets_firestore_collection</title>
<path fill="none" stroke="black" d="M699.67,-1014.94C605.76,-997.43 427.79,-958.35 391,-908 384.76,-899.46 385.99,-810.92 393,-792 396.8,-781.73 403.47,-771.96 410.43,-763.68"/>
<polygon fill="black" stroke="black" points="413.05,-766 417.12,-756.22 407.84,-761.33 413.05,-766"/>
</g>
<!-- assetFeed_topic -->
<g id="node33" class="node">
<title>assetFeed_topic</title>
<ellipse fill="#5bb974" stroke="black" cx="761" cy="-954" rx="66.89" ry="18"/>
<text text-anchor="middle" x="761" y="-950.3" font-family="Times,serif" font-size="14.00">assetFeed_topic</text>
</g>
<!-- convertfeed_cRun&#45;&gt;assetFeed_topic -->
<g id="edge32" class="edge">
<title>convertfeed_cRun&#45;&gt;assetFeed_topic</title>
<path fill="none" stroke="black" d="M758.74,-1007.7C759.07,-999.98 759.47,-990.71 759.84,-982.11"/>
<polygon fill="black" stroke="black" points="763.34,-982.25 760.27,-972.1 756.34,-981.95 763.34,-982.25"/>
</g>
<!-- assetFeed_topic&#45;&gt;publish2fs_trigger -->
<g id="edge34" class="edge">
<title>assetFeed_topic&#45;&gt;publish2fs_trigger</title>
<path fill="none" stroke="black" d="M703.95,-944.47C656.43,-936.78 587.21,-924.19 528,-908 522.79,-906.57 517.41,-904.95 512.05,-903.22"/>
<polygon fill="black" stroke="black" points="513.08,-899.87 502.49,-900.03 510.87,-906.51 513.08,-899.87"/>
</g>
<!-- assetFeed_topic&#45;&gt;upload2gcs_trigger -->
<g id="edge35" class="edge">
<title>assetFeed_topic&#45;&gt;upload2gcs_trigger</title>
<path fill="none" stroke="black" d="M727.46,-938.33C704.87,-928.44 674.72,-915.25 649.52,-904.23"/>
<polygon fill="black" stroke="black" points="650.7,-900.92 640.14,-900.12 647.89,-907.34 650.7,-900.92"/>
</g>
<!-- stream2bq_asset_trigger -->
<g id="node34" class="node">
<title>stream2bq_asset_trigger</title>
<polygon fill="#174ea6" stroke="black" points="842.5,-468 693.5,-468 693.5,-432 842.5,-432 842.5,-468"/>
<text text-anchor="middle" x="768" y="-446.3" font-family="Times,serif" font-size="14.00" fill="white">stream2bq_asset_trigger</text>
</g>
<!-- assetFeed_topic&#45;&gt;stream2bq_asset_trigger -->
<g id="edge36" class="edge">
<title>assetFeed_topic&#45;&gt;stream2bq_asset_trigger</title>
<path fill="none" stroke="black" d="M761.59,-935.95C762.47,-909.3 764,-856.12 764,-811 764,-811 764,-811 764,-593 764,-552.98 765.61,-506.64 766.78,-478.07"/>
<polygon fill="black" stroke="black" points="770.28,-478.18 767.21,-468.04 763.29,-477.89 770.28,-478.18"/>
</g>
<!-- fetchrules_trigger -->
<g id="node35" class="node">
<title>fetchrules_trigger</title>
<polygon fill="#174ea6" stroke="black" points="1027.5,-900 914.5,-900 914.5,-864 1027.5,-864 1027.5,-900"/>
<text text-anchor="middle" x="971" y="-878.3" font-family="Times,serif" font-size="14.00" fill="white">fetchrules_trigger</text>
</g>
<!-- assetFeed_topic&#45;&gt;fetchrules_trigger -->
<g id="edge37" class="edge">
<title>assetFeed_topic&#45;&gt;fetchrules_trigger</title>
<path fill="none" stroke="black" d="M804.38,-940.17C833.08,-931.51 871.45,-919.58 905,-908 909.04,-906.61 913.2,-905.13 917.38,-903.61"/>
<polygon fill="black" stroke="black" points="918.93,-906.77 927.11,-900.04 916.52,-900.2 918.93,-906.77"/>
</g>
<!-- stream2bq_cRun -->
<g id="node44" class="node">
<title>stream2bq_cRun</title>
<polygon fill="#fbbc04" stroke="black" points="1056.5,-396 951.5,-396 947.5,-392 947.5,-360 1052.5,-360 1056.5,-364 1056.5,-396"/>
<polyline fill="none" stroke="black" points="1052.5,-392 947.5,-392 "/>
<polyline fill="none" stroke="black" points="1052.5,-392 1052.5,-360 "/>
<polyline fill="none" stroke="black" points="1052.5,-392 1056.5,-396 "/>
<text text-anchor="middle" x="1002" y="-374.3" font-family="Times,serif" font-size="14.00">stream2bq_cRun</text>
</g>
<!-- stream2bq_asset_trigger&#45;&gt;stream2bq_cRun -->
<g id="edge48" class="edge">
<title>stream2bq_asset_trigger&#45;&gt;stream2bq_cRun</title>
<path fill="none" stroke="black" d="M824.94,-431.97C858.95,-421.79 902.24,-408.84 937.5,-398.29"/>
<polygon fill="black" stroke="black" points="938.65,-401.61 947.22,-395.39 936.64,-394.9 938.65,-401.61"/>
</g>
<!-- fetchrules_cRun -->
<g id="node37" class="node">
<title>fetchrules_cRun</title>
<polygon fill="#fbbc04" stroke="black" points="1014.5,-828 913.5,-828 909.5,-824 909.5,-792 1010.5,-792 1014.5,-796 1014.5,-828"/>
<polyline fill="none" stroke="black" points="1010.5,-824 909.5,-824 "/>
<polyline fill="none" stroke="black" points="1010.5,-824 1010.5,-792 "/>
<polyline fill="none" stroke="black" points="1010.5,-824 1014.5,-828 "/>
<text text-anchor="middle" x="962" y="-806.3" font-family="Times,serif" font-size="14.00">fetchrules_cRun</text>
</g>
<!-- fetchrules_trigger&#45;&gt;fetchrules_cRun -->
<g id="edge38" class="edge">
<title>fetchrules_trigger&#45;&gt;fetchrules_cRun</title>
<path fill="none" stroke="black" d="M968.78,-863.7C967.78,-855.98 966.59,-846.71 965.49,-838.11"/>
<polygon fill="black" stroke="black" points="968.95,-837.58 964.2,-828.1 962,-838.47 968.95,-837.58"/>
</g>
<!-- rules_gcs_bucket -->
<g id="node36" class="node">
<title>rules_gcs_bucket</title>
<polygon fill="#ee675c" stroke="black" points="896,-900 893,-904 872,-904 869,-900 786,-900 786,-864 896,-864 896,-900"/>
<text text-anchor="middle" x="841" y="-878.3" font-family="Times,serif" font-size="14.00">rules_gcs_bucket</text>
</g>
<!-- rules_gcs_bucket&#45;&gt;fetchrules_cRun -->
<g id="edge39" class="edge">
<title>rules_gcs_bucket&#45;&gt;fetchrules_cRun</title>
<path fill="none" stroke="black" d="M870.6,-863.88C886.57,-854.64 906.46,-843.13 923.61,-833.21"/>
<polygon fill="black" stroke="black" points="925.38,-836.23 932.29,-828.19 921.88,-830.17 925.38,-836.23"/>
</g>
<!-- assetRule_topic -->
<g id="node38" class="node">
<title>assetRule_topic</title>
<ellipse fill="#5bb974" stroke="black" cx="962" cy="-738" rx="66.09" ry="18"/>
<text text-anchor="middle" x="962" y="-734.3" font-family="Times,serif" font-size="14.00">assetRule_topic</text>
</g>
<!-- fetchrules_cRun&#45;&gt;assetRule_topic -->
<g id="edge40" class="edge">
<title>fetchrules_cRun&#45;&gt;assetRule_topic</title>
<path fill="none" stroke="black" d="M962,-791.7C962,-783.98 962,-774.71 962,-766.11"/>
<polygon fill="black" stroke="black" points="965.5,-766.1 962,-756.1 958.5,-766.1 965.5,-766.1"/>
</g>
<!-- monitor_trigger -->
<g id="node39" class="node">
<title>monitor_trigger</title>
<polygon fill="#174ea6" stroke="black" points="1015.5,-684 912.5,-684 912.5,-648 1015.5,-648 1015.5,-684"/>
<text text-anchor="middle" x="964" y="-662.3" font-family="Times,serif" font-size="14.00" fill="white">monitor_trigger</text>
</g>
<!-- assetRule_topic&#45;&gt;monitor_trigger -->
<g id="edge41" class="edge">
<title>assetRule_topic&#45;&gt;monitor_trigger</title>
<path fill="none" stroke="black" d="M962.49,-719.7C962.71,-711.98 962.98,-702.71 963.23,-694.11"/>
<polygon fill="black" stroke="black" points="966.72,-694.2 963.51,-684.1 959.73,-694 966.72,-694.2"/>
</g>
<!-- monitor_cRun -->
<g id="node40" class="node">
<title>monitor_cRun</title>
<polygon fill="#fbbc04" stroke="black" points="1037.5,-612 946.5,-612 942.5,-608 942.5,-576 1033.5,-576 1037.5,-580 1037.5,-612"/>
<polyline fill="none" stroke="black" points="1033.5,-608 942.5,-608 "/>
<polyline fill="none" stroke="black" points="1033.5,-608 1033.5,-576 "/>
<polyline fill="none" stroke="black" points="1033.5,-608 1037.5,-612 "/>
<text text-anchor="middle" x="990" y="-590.3" font-family="Times,serif" font-size="14.00">monitor_cRun</text>
</g>
<!-- monitor_trigger&#45;&gt;monitor_cRun -->
<g id="edge42" class="edge">
<title>monitor_trigger&#45;&gt;monitor_cRun</title>
<path fill="none" stroke="black" d="M970.43,-647.7C973.36,-639.81 976.89,-630.3 980.14,-621.55"/>
<polygon fill="black" stroke="black" points="983.45,-622.7 983.65,-612.1 976.88,-620.26 983.45,-622.7"/>
</g>
<!-- complianceStatus_topic -->
<g id="node41" class="node">
<title>complianceStatus_topic</title>
<ellipse fill="#5bb974" stroke="black" cx="990" cy="-522" rx="94.78" ry="18"/>
<text text-anchor="middle" x="990" y="-518.3" font-family="Times,serif" font-size="14.00">complianceStatus_topic</text>
</g>
<!-- monitor_cRun&#45;&gt;complianceStatus_topic -->
<g id="edge43" class="edge">
<title>monitor_cRun&#45;&gt;complianceStatus_topic</title>
<path fill="none" stroke="black" d="M990,-575.7C990,-567.98 990,-558.71 990,-550.11"/>
<polygon fill="black" stroke="black" points="993.5,-550.1 990,-540.1 986.5,-550.1 993.5,-550.1"/>
</g>
<!-- violation_topic -->
<g id="node42" class="node">
<title>violation_topic</title>
<ellipse fill="#5bb974" stroke="black" cx="1167" cy="-522" rx="63.89" ry="18"/>
<text text-anchor="middle" x="1167" y="-518.3" font-family="Times,serif" font-size="14.00">violation_topic</text>
</g>
<!-- monitor_cRun&#45;&gt;violation_topic -->
<g id="edge44" class="edge">
<title>monitor_cRun&#45;&gt;violation_topic</title>
<path fill="none" stroke="black" d="M1033.3,-575.88C1060.31,-565.2 1094.99,-551.48 1122.26,-540.69"/>
<polygon fill="black" stroke="black" points="1123.57,-543.94 1131.58,-537.01 1120.99,-537.43 1123.57,-543.94"/>
</g>
<!-- stream2bq_complianceStatus_trigger -->
<g id="node43" class="node">
<title>stream2bq_complianceStatus_trigger</title>
<polygon fill="#174ea6" stroke="black" points="1079.5,-468 860.5,-468 860.5,-432 1079.5,-432 1079.5,-468"/>
<text text-anchor="middle" x="970" y="-446.3" font-family="Times,serif" font-size="14.00" fill="white">stream2bq_complianceStatus_trigger</text>
</g>
<!-- complianceStatus_topic&#45;&gt;stream2bq_complianceStatus_trigger -->
<g id="edge45" class="edge">
<title>complianceStatus_topic&#45;&gt;stream2bq_complianceStatus_trigger</title>
<path fill="none" stroke="black" d="M985.06,-503.7C982.83,-495.9 980.15,-486.51 977.67,-477.83"/>
<polygon fill="black" stroke="black" points="981,-476.76 974.89,-468.1 974.27,-478.68 981,-476.76"/>
</g>
<!-- stream2bq_violation_trigger -->
<g id="node45" class="node">
<title>stream2bq_violation_trigger</title>
<polygon fill="#174ea6" stroke="black" points="1268.5,-468 1097.5,-468 1097.5,-432 1268.5,-432 1268.5,-468"/>
<text text-anchor="middle" x="1183" y="-446.3" font-family="Times,serif" font-size="14.00" fill="white">stream2bq_violation_trigger</text>
</g>
<!-- violation_topic&#45;&gt;stream2bq_violation_trigger -->
<g id="edge47" class="edge">
<title>violation_topic&#45;&gt;stream2bq_violation_trigger</title>
<path fill="none" stroke="black" d="M1170.96,-503.7C1172.72,-495.98 1174.84,-486.71 1176.8,-478.11"/>
<polygon fill="black" stroke="black" points="1180.27,-478.63 1179.09,-468.1 1173.45,-477.07 1180.27,-478.63"/>
</g>
<!-- autofix_bqdsdelete_trigger -->
<g id="node52" class="node">
<title>autofix_bqdsdelete_trigger</title>
<polygon fill="#174ea6" stroke="black" points="1463,-468 1301,-468 1301,-432 1463,-432 1463,-468"/>
<text text-anchor="middle" x="1382" y="-446.3" font-family="Times,serif" font-size="14.00" fill="white">autofix_bqdsdelete_trigger</text>
</g>
<!-- violation_topic&#45;&gt;autofix_bqdsdelete_trigger -->
<g id="edge58" class="edge">
<title>violation_topic&#45;&gt;autofix_bqdsdelete_trigger</title>
<path fill="none" stroke="black" d="M1207.19,-507.92C1238.87,-497.6 1283.62,-483.03 1319.9,-471.22"/>
<polygon fill="black" stroke="black" points="1320.99,-474.55 1329.41,-468.12 1318.82,-467.89 1320.99,-474.55"/>
</g>
<!-- stream2bq_complianceStatus_trigger&#45;&gt;stream2bq_cRun -->
<g id="edge46" class="edge">
<title>stream2bq_complianceStatus_trigger&#45;&gt;stream2bq_cRun</title>
<path fill="none" stroke="black" d="M977.91,-431.7C981.55,-423.73 985.95,-414.1 989.99,-405.26"/>
<polygon fill="black" stroke="black" points="993.21,-406.65 994.18,-396.1 986.84,-403.74 993.21,-406.65"/>
</g>
<!-- assets_bq_table -->
<g id="node46" class="node">
<title>assets_bq_table</title>
<polygon fill="none" stroke="black" points="1084.5,-324 1081.5,-328 1060.5,-328 1057.5,-324 983.5,-324 983.5,-288 1084.5,-288 1084.5,-324"/>
<text text-anchor="middle" x="1034" y="-302.3" font-family="Times,serif" font-size="14.00">assets_bq_table</text>
</g>
<!-- stream2bq_cRun&#45;&gt;assets_bq_table -->
<g id="edge50" class="edge">
<title>stream2bq_cRun&#45;&gt;assets_bq_table</title>
<path fill="none" stroke="black" d="M1009.91,-359.7C1013.55,-351.73 1017.95,-342.1 1021.99,-333.26"/>
<polygon fill="black" stroke="black" points="1025.21,-334.65 1026.18,-324.1 1018.84,-331.74 1025.21,-334.65"/>
</g>
<!-- complianceStatus_bq_table -->
<g id="node47" class="node">
<title>complianceStatus_bq_table</title>
<polygon fill="none" stroke="black" points="1269,-324 1266,-328 1245,-328 1242,-324 1103,-324 1103,-288 1269,-288 1269,-324"/>
<text text-anchor="middle" x="1186" y="-302.3" font-family="Times,serif" font-size="14.00">complianceStatus_bq_table</text>
</g>
<!-- stream2bq_cRun&#45;&gt;complianceStatus_bq_table -->
<g id="edge51" class="edge">
<title>stream2bq_cRun&#45;&gt;complianceStatus_bq_table</title>
<path fill="none" stroke="black" d="M1047.01,-359.88C1072.5,-350.18 1104.57,-337.98 1131.48,-327.74"/>
<polygon fill="black" stroke="black" points="1133.03,-330.9 1141.13,-324.07 1130.54,-324.35 1133.03,-330.9"/>
</g>
<!-- violations_bq_table -->
<g id="node48" class="node">
<title>violations_bq_table</title>
<polygon fill="none" stroke="black" points="1024.5,-252 1021.5,-256 1000.5,-256 997.5,-252 901.5,-252 901.5,-216 1024.5,-216 1024.5,-252"/>
<text text-anchor="middle" x="963" y="-230.3" font-family="Times,serif" font-size="14.00">violations_bq_table</text>
</g>
<!-- stream2bq_cRun&#45;&gt;violations_bq_table -->
<g id="edge52" class="edge">
<title>stream2bq_cRun&#45;&gt;violations_bq_table</title>
<path fill="none" stroke="black" d="M991.45,-359.96C985.69,-349.87 978.94,-336.62 975,-324 968.7,-303.82 965.71,-280.04 964.28,-262.14"/>
<polygon fill="black" stroke="black" points="967.77,-261.84 963.6,-252.1 960.79,-262.31 967.77,-261.84"/>
</g>
<!-- stream2bq_violation_trigger&#45;&gt;stream2bq_cRun -->
<g id="edge49" class="edge">
<title>stream2bq_violation_trigger&#45;&gt;stream2bq_cRun</title>
<path fill="none" stroke="black" d="M1138.72,-431.88C1113.65,-422.18 1082.1,-409.98 1055.63,-399.74"/>
<polygon fill="black" stroke="black" points="1056.72,-396.41 1046.13,-396.07 1054.2,-402.94 1056.72,-396.41"/>
</g>
<!-- lastAssets_bq_view -->
<g id="node49" class="node">
<title>lastAssets_bq_view</title>
<polygon fill="none" stroke="black" points="1167,-252 1164,-256 1143,-256 1140,-252 1043,-252 1043,-216 1167,-216 1167,-252"/>
<text text-anchor="middle" x="1105" y="-230.3" font-family="Times,serif" font-size="14.00">lastAssets_bq_view</text>
</g>
<!-- assets_bq_table&#45;&gt;lastAssets_bq_view -->
<g id="edge53" class="edge">
<title>assets_bq_table&#45;&gt;lastAssets_bq_view</title>
<path fill="none" stroke="black" d="M1051.55,-287.7C1060.23,-279.14 1070.86,-268.66 1080.35,-259.3"/>
<polygon fill="black" stroke="black" points="1082.99,-261.62 1087.65,-252.1 1078.07,-256.63 1082.99,-261.62"/>
</g>
<!-- lastComplianceStatus_bq_view -->
<g id="node50" class="node">
<title>lastComplianceStatus_bq_view</title>
<polygon fill="none" stroke="black" points="1234,-180 1231,-184 1210,-184 1207,-180 1046,-180 1046,-144 1234,-144 1234,-180"/>
<text text-anchor="middle" x="1140" y="-158.3" font-family="Times,serif" font-size="14.00">lastComplianceStatus_bq_view</text>
</g>
<!-- complianceStatus_bq_table&#45;&gt;lastComplianceStatus_bq_view -->
<g id="edge54" class="edge">
<title>complianceStatus_bq_table&#45;&gt;lastComplianceStatus_bq_view</title>
<path fill="none" stroke="black" d="M1186.48,-287.71C1186.44,-269.35 1184.79,-239.77 1176,-216 1172.45,-206.4 1166.8,-196.85 1161.02,-188.56"/>
<polygon fill="black" stroke="black" points="1163.77,-186.4 1155.03,-180.42 1158.14,-190.55 1163.77,-186.4"/>
</g>
<!-- activeViolations_bq_view -->
<g id="node51" class="node">
<title>activeViolations_bq_view</title>
<polygon fill="none" stroke="black" points="1148,-108 1145,-112 1124,-112 1121,-108 990,-108 990,-72 1148,-72 1148,-108"/>
<text text-anchor="middle" x="1069" y="-86.3" font-family="Times,serif" font-size="14.00">activeViolations_bq_view</text>
</g>
<!-- violations_bq_table&#45;&gt;activeViolations_bq_view -->
<g id="edge56" class="edge">
<title>violations_bq_table&#45;&gt;activeViolations_bq_view</title>
<path fill="none" stroke="black" d="M975.79,-215.87C994.25,-191.14 1028.51,-145.24 1049.96,-116.51"/>
<polygon fill="black" stroke="black" points="1052.99,-118.3 1056.17,-108.19 1047.38,-114.11 1052.99,-118.3"/>
</g>
<!-- lastAssets_bq_view&#45;&gt;lastComplianceStatus_bq_view -->
<g id="edge55" class="edge">
<title>lastAssets_bq_view&#45;&gt;lastComplianceStatus_bq_view</title>
<path fill="none" stroke="black" d="M1113.65,-215.7C1117.64,-207.73 1122.45,-198.1 1126.87,-189.26"/>
<polygon fill="black" stroke="black" points="1130.11,-190.61 1131.45,-180.1 1123.85,-187.48 1130.11,-190.61"/>
</g>
<!-- reports -->
<g id="node73" class="node">
<title>reports</title>
<text text-anchor="middle" x="1069" y="-14.3" font-family="Times,serif" font-size="14.00">reports</text>
</g>
<!-- lastAssets_bq_view&#45;&gt;reports -->
<g id="edge81" class="edge">
<title>lastAssets_bq_view&#45;&gt;reports</title>
<path fill="none" stroke="black" d="M1076.75,-215.88C1045.57,-195 997.62,-156.43 981,-108 973.5,-86.14 968.21,-75.25 981,-56 992.35,-38.92 1013.29,-29.7 1031.9,-24.74"/>
<polygon fill="black" stroke="black" points="1032.7,-28.15 1041.64,-22.46 1031.1,-21.33 1032.7,-28.15"/>
</g>
<!-- lastComplianceStatus_bq_view&#45;&gt;activeViolations_bq_view -->
<g id="edge57" class="edge">
<title>lastComplianceStatus_bq_view&#45;&gt;activeViolations_bq_view</title>
<path fill="none" stroke="black" d="M1122.45,-143.7C1113.77,-135.14 1103.14,-124.66 1093.65,-115.3"/>
<polygon fill="black" stroke="black" points="1095.93,-112.63 1086.35,-108.1 1091.01,-117.62 1095.93,-112.63"/>
</g>
<!-- lastComplianceStatus_bq_view&#45;&gt;reports -->
<g id="edge82" class="edge">
<title>lastComplianceStatus_bq_view&#45;&gt;reports</title>
<path fill="none" stroke="black" d="M1149.59,-143.82C1160.54,-121.65 1174.78,-82.76 1157,-56 1145.65,-38.92 1124.71,-29.7 1106.1,-24.74"/>
<polygon fill="black" stroke="black" points="1106.9,-21.33 1096.36,-22.46 1105.3,-28.15 1106.9,-21.33"/>
</g>
<!-- activeViolations_bq_view&#45;&gt;reports -->
<g id="edge83" class="edge">
<title>activeViolations_bq_view&#45;&gt;reports</title>
<path fill="none" stroke="black" d="M1069,-71.7C1069,-63.98 1069,-54.71 1069,-46.11"/>
<polygon fill="black" stroke="black" points="1072.5,-46.1 1069,-36.1 1065.5,-46.1 1072.5,-46.1"/>
</g>
<!-- autofix_bqdsdelete_cRun -->
<g id="node53" class="node">
<title>autofix_bqdsdelete_cRun</title>
<polygon fill="#fbbc04" stroke="black" points="1460.5,-396 1309.5,-396 1305.5,-392 1305.5,-360 1456.5,-360 1460.5,-364 1460.5,-396"/>
<polyline fill="none" stroke="black" points="1456.5,-392 1305.5,-392 "/>
<polyline fill="none" stroke="black" points="1456.5,-392 1456.5,-360 "/>
<polyline fill="none" stroke="black" points="1456.5,-392 1460.5,-396 "/>
<text text-anchor="middle" x="1383" y="-374.3" font-family="Times,serif" font-size="14.00">autofix_bqdsdelete_cRun</text>
</g>
<!-- autofix_bqdsdelete_trigger&#45;&gt;autofix_bqdsdelete_cRun -->
<g id="edge59" class="edge">
<title>autofix_bqdsdelete_trigger&#45;&gt;autofix_bqdsdelete_cRun</title>
<path fill="none" stroke="black" d="M1382.25,-431.7C1382.36,-423.98 1382.49,-414.71 1382.61,-406.11"/>
<polygon fill="black" stroke="black" points="1386.11,-406.15 1382.76,-396.1 1379.11,-406.05 1386.11,-406.15"/>
</g>
<!-- deleted_dataset -->
<g id="node74" class="node">
<title>deleted_dataset</title>
<text text-anchor="middle" x="1084" y="-1413.3" font-family="Times,serif" font-size="14.00">deleted_dataset</text>
</g>
<!-- autofix_bqdsdelete_cRun&#45;&gt;deleted_dataset -->
<g id="edge84" class="edge">
<title>autofix_bqdsdelete_cRun&#45;&gt;deleted_dataset</title>
<path fill="none" stroke="black" d="M1426.96,-396.07C1443.4,-404.54 1460.79,-416.36 1472,-432 1495.57,-464.87 1491,-480.55 1491,-521 1491,-1174 1491,-1174 1491,-1174 1491,-1333.4 1257.51,-1390.16 1144.23,-1408.33"/>
<polygon fill="black" stroke="black" points="1143.66,-1404.87 1134.31,-1409.87 1144.73,-1411.79 1143.66,-1404.87"/>
</g>
<!-- console_cRun -->
<g id="node54" class="node">
<title>console_cRun</title>
<polygon fill="#fbbc04" stroke="black" points="1622.5,-468 1533.5,-468 1529.5,-464 1529.5,-432 1618.5,-432 1622.5,-436 1622.5,-468"/>
<polyline fill="none" stroke="black" points="1618.5,-464 1529.5,-464 "/>
<polyline fill="none" stroke="black" points="1618.5,-464 1618.5,-432 "/>
<polyline fill="none" stroke="black" points="1618.5,-464 1622.5,-468 "/>
<text text-anchor="middle" x="1576" y="-446.3" font-family="Times,serif" font-size="14.00">console_cRun</text>
</g>
<!-- consolebff_cRun -->
<g id="node55" class="node">
<title>consolebff_cRun</title>
<polygon fill="#fbbc04" stroke="black" points="1626.5,-396 1521.5,-396 1517.5,-392 1517.5,-360 1622.5,-360 1626.5,-364 1626.5,-396"/>
<polyline fill="none" stroke="black" points="1622.5,-392 1517.5,-392 "/>
<polyline fill="none" stroke="black" points="1622.5,-392 1622.5,-360 "/>
<polyline fill="none" stroke="black" points="1622.5,-392 1626.5,-396 "/>
<text text-anchor="middle" x="1572" y="-374.3" font-family="Times,serif" font-size="14.00">consolebff_cRun</text>
</g>
<!-- console_cRun&#45;&gt;consolebff_cRun -->
<g id="edge60" class="edge">
<title>console_cRun&#45;&gt;consolebff_cRun</title>
<path fill="none" stroke="black" d="M1575.01,-431.7C1574.57,-423.98 1574.04,-414.71 1573.55,-406.11"/>
<polygon fill="black" stroke="black" points="1577.04,-405.89 1572.98,-396.1 1570.05,-406.29 1577.04,-405.89"/>
</g>
<!-- consolebff_cRun&#45;&gt;assets_bq_table -->
<g id="edge62" class="edge">
<title>consolebff_cRun&#45;&gt;assets_bq_table</title>
<path fill="none" stroke="black" d="M1517.47,-361.13C1503.72,-357.62 1488.9,-354.28 1475,-352 1310.65,-325 1263.01,-352.43 1094.52,-323.84"/>
<polygon fill="black" stroke="black" points="1095.02,-320.37 1084.57,-322.11 1093.82,-327.27 1095.02,-320.37"/>
</g>
<!-- consolebff_cRun&#45;&gt;complianceStatus_bq_table -->
<g id="edge61" class="edge">
<title>consolebff_cRun&#45;&gt;complianceStatus_bq_table</title>
<path fill="none" stroke="black" d="M1517.33,-361.91C1503.57,-358.39 1488.8,-354.84 1475,-352 1410.02,-338.6 1336.09,-327.16 1279.27,-319.16"/>
<polygon fill="black" stroke="black" points="1279.62,-315.68 1269.23,-317.76 1278.65,-322.61 1279.62,-315.68"/>
</g>
<!-- dns_A_record -->
<g id="node56" class="node">
<title>dns_A_record</title>
<text text-anchor="middle" x="1746" y="-1169.3" font-family="Times,serif" font-size="14.00">dns_A_record</text>
</g>
<!-- global_address -->
<g id="node58" class="node">
<title>global_address</title>
<text text-anchor="middle" x="1791" y="-1094.3" font-family="Times,serif" font-size="14.00">global_address</text>
</g>
<!-- dns_A_record&#45;&gt;global_address -->
<g id="edge78" class="edge">
<title>dns_A_record&#45;&gt;global_address</title>
<path fill="none" stroke="black" d="M1756.66,-1154.7C1762.16,-1145.79 1768.96,-1134.75 1775.07,-1124.85"/>
<polygon fill="black" stroke="black" points="1778.14,-1126.53 1780.41,-1116.18 1772.19,-1122.85 1778.14,-1126.53"/>
</g>
<!-- ssl_certificate -->
<g id="node60" class="node">
<title>ssl_certificate</title>
<text text-anchor="middle" x="1705" y="-878.3" font-family="Times,serif" font-size="14.00">ssl_certificate</text>
</g>
<!-- dns_A_record&#45;&gt;ssl_certificate -->
<g id="edge79" class="edge">
<title>dns_A_record&#45;&gt;ssl_certificate</title>
<path fill="none" stroke="black" d="M1736.04,-1154.87C1734.86,-1152.29 1733.79,-1149.62 1733,-1147 1707.76,-1063.31 1704.55,-958.73 1704.58,-910.14"/>
<polygon fill="black" stroke="black" points="1708.08,-910.13 1704.64,-900.11 1701.08,-910.09 1708.08,-910.13"/>
</g>
<!-- global_forwarding_rule -->
<g id="node57" class="node">
<title>global_forwarding_rule</title>
<text text-anchor="middle" x="1803" y="-1022.3" font-family="Times,serif" font-size="14.00">global_forwarding_rule</text>
</g>
<!-- target_https_proxy -->
<g id="node59" class="node">
<title>target_https_proxy</title>
<text text-anchor="middle" x="1801" y="-950.3" font-family="Times,serif" font-size="14.00">target_https_proxy</text>
</g>
<!-- global_forwarding_rule&#45;&gt;target_https_proxy -->
<g id="edge64" class="edge">
<title>global_forwarding_rule&#45;&gt;target_https_proxy</title>
<path fill="none" stroke="black" d="M1802.51,-1007.7C1802.29,-999.98 1802.02,-990.71 1801.77,-982.11"/>
<polygon fill="black" stroke="black" points="1805.27,-982 1801.49,-972.1 1798.28,-982.2 1805.27,-982"/>
</g>
<!-- global_address&#45;&gt;global_forwarding_rule -->
<g id="edge63" class="edge">
<title>global_address&#45;&gt;global_forwarding_rule</title>
<path fill="none" stroke="black" d="M1793.97,-1079.7C1795.29,-1071.98 1796.88,-1062.71 1798.35,-1054.11"/>
<polygon fill="black" stroke="black" points="1801.83,-1054.55 1800.07,-1044.1 1794.93,-1053.37 1801.83,-1054.55"/>
</g>
<!-- target_https_proxy&#45;&gt;ssl_certificate -->
<g id="edge65" class="edge">
<title>target_https_proxy&#45;&gt;ssl_certificate</title>
<path fill="none" stroke="black" d="M1777.27,-935.7C1765.06,-926.8 1750.01,-915.82 1736.82,-906.2"/>
<polygon fill="black" stroke="black" points="1738.6,-903.17 1728.46,-900.1 1734.48,-908.82 1738.6,-903.17"/>
</g>
<!-- url_map -->
<g id="node61" class="node">
<title>url_map</title>
<text text-anchor="middle" x="1801" y="-878.3" font-family="Times,serif" font-size="14.00">url_map</text>
</g>
<!-- target_https_proxy&#45;&gt;url_map -->
<g id="edge66" class="edge">
<title>target_https_proxy&#45;&gt;url_map</title>
<path fill="none" stroke="black" d="M1801,-935.7C1801,-927.98 1801,-918.71 1801,-910.11"/>
<polygon fill="black" stroke="black" points="1804.5,-910.1 1801,-900.1 1797.5,-910.1 1804.5,-910.1"/>
</g>
<!-- cloud_armor -->
<g id="node66" class="node">
<title>cloud_armor</title>
<polygon fill="#a50e0e" stroke="transparent" points="1844,-828 1758,-828 1758,-792 1844,-792 1844,-828"/>
<text text-anchor="middle" x="1801" y="-806.3" font-family="Times,serif" font-size="14.00" fill="white">cloud_armor</text>
</g>
<!-- url_map&#45;&gt;cloud_armor -->
<g id="edge67" class="edge">
<title>url_map&#45;&gt;cloud_armor</title>
<path fill="none" stroke="black" d="M1801,-863.7C1801,-855.98 1801,-846.71 1801,-838.11"/>
<polygon fill="black" stroke="black" points="1804.5,-838.1 1801,-828.1 1797.5,-838.1 1804.5,-838.1"/>
</g>
<!-- static_public_backend_bucket -->
<g id="node62" class="node">
<title>static_public_backend_bucket</title>
<text text-anchor="middle" x="1989" y="-734.3" font-family="Times,serif" font-size="14.00">static_public_backend_bucket</text>
</g>
<!-- static_public_storage_bucket -->
<g id="node63" class="node">
<title>static_public_storage_bucket</title>
<text text-anchor="middle" x="1995" y="-662.3" font-family="Times,serif" font-size="14.00">static_public_storage_bucket</text>
</g>
<!-- static_public_backend_bucket&#45;&gt;static_public_storage_bucket -->
<g id="edge69" class="edge">
<title>static_public_backend_bucket&#45;&gt;static_public_storage_bucket</title>
<path fill="none" stroke="black" d="M1990.48,-719.7C1991.14,-711.98 1991.94,-702.71 1992.68,-694.11"/>
<polygon fill="black" stroke="black" points="1996.17,-694.37 1993.53,-684.1 1989.19,-693.77 1996.17,-694.37"/>
</g>
<!-- admin_identity_aware_proxy -->
<g id="node64" class="node">
<title>admin_identity_aware_proxy</title>
<polygon fill="#a50e0e" stroke="transparent" points="1695,-684 1519,-684 1519,-648 1695,-648 1695,-684"/>
<text text-anchor="middle" x="1607" y="-662.3" font-family="Times,serif" font-size="14.00" fill="white">admin_identity_aware_proxy</text>
</g>
<!-- admin_serverless_neg -->
<g id="node68" class="node">
<title>admin_serverless_neg</title>
<text text-anchor="middle" x="1610" y="-590.3" font-family="Times,serif" font-size="14.00">admin_serverless_neg</text>
</g>
<!-- admin_identity_aware_proxy&#45;&gt;admin_serverless_neg -->
<g id="edge72" class="edge">
<title>admin_identity_aware_proxy&#45;&gt;admin_serverless_neg</title>
<path fill="none" stroke="black" d="M1607.74,-647.7C1608.07,-639.98 1608.47,-630.71 1608.84,-622.11"/>
<polygon fill="black" stroke="black" points="1612.34,-622.25 1609.27,-612.1 1605.34,-621.95 1612.34,-622.25"/>
</g>
<!-- results_identity_aware_proxy -->
<g id="node65" class="node">
<title>results_identity_aware_proxy</title>
<polygon fill="#a50e0e" stroke="transparent" points="1889.5,-684 1712.5,-684 1712.5,-648 1889.5,-648 1889.5,-684"/>
<text text-anchor="middle" x="1801" y="-662.3" font-family="Times,serif" font-size="14.00" fill="white">results_identity_aware_proxy</text>
</g>
<!-- results_serverless_neg -->
<g id="node71" class="node">
<title>results_serverless_neg</title>
<text text-anchor="middle" x="1810" y="-590.3" font-family="Times,serif" font-size="14.00">results_serverless_neg</text>
</g>
<!-- results_identity_aware_proxy&#45;&gt;results_serverless_neg -->
<g id="edge76" class="edge">
<title>results_identity_aware_proxy&#45;&gt;results_serverless_neg</title>
<path fill="none" stroke="black" d="M1803.22,-647.7C1804.22,-639.98 1805.41,-630.71 1806.51,-622.11"/>
<polygon fill="black" stroke="black" points="1810,-622.47 1807.8,-612.1 1803.05,-621.58 1810,-622.47"/>
</g>
<!-- cloud_armor&#45;&gt;static_public_backend_bucket -->
<g id="edge68" class="edge">
<title>cloud_armor&#45;&gt;static_public_backend_bucket</title>
<path fill="none" stroke="black" d="M1844.13,-792.94C1870.72,-783.04 1905.08,-770.25 1933.66,-759.6"/>
<polygon fill="black" stroke="black" points="1934.97,-762.85 1943.12,-756.08 1932.52,-756.29 1934.97,-762.85"/>
</g>
<!-- admin_backend_services -->
<g id="node67" class="node">
<title>admin_backend_services</title>
<text text-anchor="middle" x="1618" y="-734.3" font-family="Times,serif" font-size="14.00">admin_backend_services</text>
</g>
<!-- cloud_armor&#45;&gt;admin_backend_services -->
<g id="edge70" class="edge">
<title>cloud_armor&#45;&gt;admin_backend_services</title>
<path fill="none" stroke="black" d="M1757.63,-792.41C1732.01,-782.61 1699.35,-770.12 1672.06,-759.68"/>
<polygon fill="black" stroke="black" points="1673.24,-756.38 1662.65,-756.08 1670.74,-762.92 1673.24,-756.38"/>
</g>
<!-- results_backend_services -->
<g id="node70" class="node">
<title>results_backend_services</title>
<text text-anchor="middle" x="1801" y="-734.3" font-family="Times,serif" font-size="14.00">results_backend_services</text>
</g>
<!-- cloud_armor&#45;&gt;results_backend_services -->
<g id="edge74" class="edge">
<title>cloud_armor&#45;&gt;results_backend_services</title>
<path fill="none" stroke="black" d="M1801,-791.7C1801,-783.98 1801,-774.71 1801,-766.11"/>
<polygon fill="black" stroke="black" points="1804.5,-766.1 1801,-756.1 1797.5,-766.1 1804.5,-766.1"/>
</g>
<!-- admin_backend_services&#45;&gt;admin_identity_aware_proxy -->
<g id="edge71" class="edge">
<title>admin_backend_services&#45;&gt;admin_identity_aware_proxy</title>
<path fill="none" stroke="black" d="M1615.28,-719.7C1614.07,-711.98 1612.61,-702.71 1611.26,-694.11"/>
<polygon fill="black" stroke="black" points="1614.7,-693.44 1609.69,-684.1 1607.78,-694.53 1614.7,-693.44"/>
</g>
<!-- admin_serverless_neg_urlmask -->
<g id="node69" class="node">
<title>admin_serverless_neg_urlmask</title>
<text text-anchor="middle" x="1613" y="-518.3" font-family="Times,serif" font-size="14.00">admin_serverless_neg_urlmask</text>
</g>
<!-- admin_serverless_neg&#45;&gt;admin_serverless_neg_urlmask -->
<g id="edge73" class="edge">
<title>admin_serverless_neg&#45;&gt;admin_serverless_neg_urlmask</title>
<path fill="none" stroke="black" d="M1610.74,-575.7C1611.07,-567.98 1611.47,-558.71 1611.84,-550.11"/>
<polygon fill="black" stroke="black" points="1615.34,-550.25 1612.27,-540.1 1608.34,-549.95 1615.34,-550.25"/>
</g>
<!-- results_backend_services&#45;&gt;results_identity_aware_proxy -->
<g id="edge75" class="edge">
<title>results_backend_services&#45;&gt;results_identity_aware_proxy</title>
<path fill="none" stroke="black" d="M1801,-719.7C1801,-711.98 1801,-702.71 1801,-694.11"/>
<polygon fill="black" stroke="black" points="1804.5,-694.1 1801,-684.1 1797.5,-694.1 1804.5,-694.1"/>
</g>
<!-- results_serverless_neg_urlmask -->
<g id="node72" class="node">
<title>results_serverless_neg_urlmask</title>
<text text-anchor="middle" x="1820" y="-518.3" font-family="Times,serif" font-size="14.00">results_serverless_neg_urlmask</text>
</g>
<!-- results_serverless_neg&#45;&gt;results_serverless_neg_urlmask -->
<g id="edge77" class="edge">
<title>results_serverless_neg&#45;&gt;results_serverless_neg_urlmask</title>
<path fill="none" stroke="black" d="M1812.47,-575.7C1813.57,-567.98 1814.9,-558.71 1816.13,-550.11"/>
<polygon fill="black" stroke="black" points="1819.61,-550.5 1817.56,-540.1 1812.68,-549.51 1819.61,-550.5"/>
</g>
<!-- results_serverless_neg_urlmask&#45;&gt;console_cRun -->
<g id="edge80" class="edge">
<title>results_serverless_neg_urlmask&#45;&gt;console_cRun</title>
<path fill="none" stroke="black" d="M1760.62,-503.97C1721.65,-492.78 1670.97,-478.25 1632.57,-467.23"/>
<polygon fill="black" stroke="black" points="1633.17,-463.76 1622.59,-464.37 1631.24,-470.49 1633.17,-463.76"/>
</g>
<!-- deleted_dataset&#45;&gt;caiFeed_org_A -->
<g id="edge85" class="edge">
<title>deleted_dataset&#45;&gt;caiFeed_org_A</title>
<path fill="none" stroke="black" d="M1033.75,-1416.86C949.75,-1417.39 785.34,-1414.24 738,-1383 708.99,-1363.86 692.82,-1325.75 684.76,-1299.82"/>
<polygon fill="black" stroke="black" points="688.12,-1298.84 681.97,-1290.21 681.4,-1300.79 688.12,-1298.84"/>
</g>
<!-- cloud_run_service -->
<g id="node75" class="node">
<title>cloud_run_service</title>
<polygon fill="#fbbc04" stroke="black" points="1390,-1723 1278,-1723 1274,-1719 1274,-1687 1386,-1687 1390,-1691 1390,-1723"/>
<polyline fill="none" stroke="black" points="1386,-1719 1274,-1719 "/>
<polyline fill="none" stroke="black" points="1386,-1719 1386,-1687 "/>
<polyline fill="none" stroke="black" points="1386,-1719 1390,-1723 "/>
<text text-anchor="middle" x="1332" y="-1701.3" font-family="Times,serif" font-size="14.00">cloud_run_service</text>
</g>
<!-- eventarc_trigger -->
<g id="node76" class="node">
<title>eventarc_trigger</title>
<polygon fill="#aecbfa" stroke="black" points="1315.5,-1795 1210.5,-1795 1210.5,-1759 1315.5,-1759 1315.5,-1795"/>
<text text-anchor="middle" x="1263" y="-1773.3" font-family="Times,serif" font-size="14.00">eventarc_trigger</text>
</g>
<!-- eventarc_trigger&#45;&gt;cloud_run_service -->
<!-- subscription_trigger -->
<g id="node77" class="node">
<title>subscription_trigger</title>
<polygon fill="#174ea6" stroke="black" points="1458.5,-1795 1333.5,-1795 1333.5,-1759 1458.5,-1759 1458.5,-1795"/>
<text text-anchor="middle" x="1396" y="-1773.3" font-family="Times,serif" font-size="14.00" fill="white">subscription_trigger</text>
</g>
<!-- subscription_trigger&#45;&gt;cloud_run_service -->
<!-- pubsub_topic -->
<g id="node78" class="node">
<title>pubsub_topic</title>
<ellipse fill="#5bb974" stroke="black" cx="1332" cy="-1849" rx="57.69" ry="18"/>
<text text-anchor="middle" x="1332" y="-1845.3" font-family="Times,serif" font-size="14.00">pubsub_topic</text>
</g>
<!-- pubsub_topic&#45;&gt;eventarc_trigger -->
<!-- pubsub_topic&#45;&gt;subscription_trigger -->
</g>
</svg>
