module example.com/ram

go 1.22

require (
	cloud.google.com/go/firestore v1.15.0
	github.com/kelseyhightower/envconfig v1.4.0
	gitlab.com/realtime-asset-monitor/utilities v0.0.26
)

require (
	cloud.google.com/go v0.115.0 // indirect
	cloud.google.com/go/auth v0.7.1 // indirect
	cloud.google.com/go/auth/oauth2adapt v0.2.3 // indirect
	cloud.google.com/go/compute/metadata v0.5.0 // indirect
	cloud.google.com/go/iam v1.1.11 // indirect
	cloud.google.com/go/longrunning v0.5.10 // indirect
	cloud.google.com/go/pubsub v1.40.0 // indirect
	github.com/felixge/httpsnoop v1.0.4 // indirect
	github.com/go-logr/logr v1.4.2 // indirect
	github.com/go-logr/stdr v1.2.2 // indirect
	github.com/golang/groupcache v0.0.0-20210331224755-41bb18bfe9da // indirect
	github.com/golang/protobuf v1.5.4 // indirect
	github.com/google/s2a-go v0.1.7 // indirect
	github.com/google/uuid v1.6.0 // indirect
	github.com/googleapis/enterprise-certificate-proxy v0.3.2 // indirect
	github.com/googleapis/gax-go/v2 v2.12.5 // indirect
	go.opencensus.io v0.24.0 // indirect
	go.opentelemetry.io/contrib/instrumentation/google.golang.org/grpc/otelgrpc v0.53.0 // indirect
	go.opentelemetry.io/contrib/instrumentation/net/http/otelhttp v0.53.0 // indirect
	go.opentelemetry.io/otel v1.28.0 // indirect
	go.opentelemetry.io/otel/metric v1.28.0 // indirect
	go.opentelemetry.io/otel/trace v1.28.0 // indirect
	golang.org/x/crypto v0.25.0 // indirect
	golang.org/x/net v0.27.0 // indirect
	golang.org/x/oauth2 v0.21.0 // indirect
	golang.org/x/sync v0.7.0 // indirect
	golang.org/x/sys v0.22.0 // indirect
	golang.org/x/text v0.16.0 // indirect
	golang.org/x/time v0.5.0 // indirect
	google.golang.org/api v0.188.0 // indirect
	google.golang.org/genproto v0.0.0-20240711142825-46eb208f015d // indirect
	google.golang.org/genproto/googleapis/api v0.0.0-20240711142825-46eb208f015d // indirect
	google.golang.org/genproto/googleapis/rpc v0.0.0-20240711142825-46eb208f015d // indirect
	google.golang.org/grpc v1.65.0 // indirect
	google.golang.org/protobuf v1.34.2 // indirect
)
